…
## `summarise()` の新機能3 {#new_summarise3}
- 集約後の値が複数でも大丈夫
- **集約値が複数の場合、.groups引数は自動的に "keep" になる**

```{r, eval=FALSE}
grouped_starwars %>%
  summarise(q_height = quantile(height, na.rm = TRUE))

# A tibble: 290 x 3
# Groups:   species, homeworld [58]
#    species  homeworld   dep_height
#   <chr>    <chr>            <dbl>
# 1 Aleena   Aleen Minor         79
# 2 Aleena   Aleen Minor         79
# 3 Aleena   Aleen Minor         79
# 4 Aleena   Aleen Minor         79
# 5 Aleena   Aleen Minor         79
# 6 Besalisk Ojom               198
# 7 Besalisk Ojom               198
# 8 Besalisk Ojom               198
# 9 Besalisk Ojom               198
# 10 Besalisk Ojom               198
# … with 280 more rows
```

## どの分位点か、わからないので... {#which_quantile}
```{r, eval=FALSE}
grouped_starwars %>%
  summarise(q = c(0, 0.25, 0.5, 0.75, 1),
            q_height = quantile(height, na.rm = TRUE))

# A tibble: 290 x 4
# Groups:   species, homeworld [58]
#   species  homeworld       q q_height
#   <chr>    <chr>       <dbl>    <dbl>
# 1 Aleena   Aleen Minor  0          79
# 2 Aleena   Aleen Minor  0.25       79
# 3 Aleena   Aleen Minor  0.5        79
# 4 Aleena   Aleen Minor  0.75       79
# 5 Aleena   Aleen Minor  1          79
# 6 Besalisk Ojom         0         198
# 7 Besalisk Ojom         0.25      198
# 8 Besalisk Ojom         0.5       198
# 9 Besalisk Ojom         0.75      198
# 10 Besalisk Ojom         1         198
# … with 280 more rows
```
…
